Tidy up your data science workflow with the tidyverse
…
---

## Inspect the data

.midi[

```r
fisheries
```

```
## # A tibble: 68 x 6
##    country                           capture aquaculture   total continent aquaculture_perc
##    <chr>                               <dbl>       <dbl>   <dbl> <chr>                <dbl>
##  1 Algeria                            126259         368  126627 Africa             0.00291
##  2 Argentina                          931472        2430  933902 Americas           0.00260
##  3 Australia                          245935       47087  293022 Oceania            0.161  
##  4 Bangladesh                        1333866      882091 2215957 Asia               0.398  
##  5 Brazil                             750283      257783 1008066 Americas           0.256  
##  6 Cambodia                           384000       26000  410000 Asia               0.0634 
##  7 Canada                            1080982      154083 1235065 Americas           0.125  
##  8 Chile                             4330325      698214 5028539 Americas           0.139  
##  9 Colombia                           121000       60072  181072 Americas           0.332  
## 10 Congo, Democratic Republic of the  220000        2965  222965 Africa             0.0133 
## # … with 58 more rows
```
…
```r
fisheries <- fisheries %>%
  mutate(total = capture + aquaculture) %>%
  filter(total > 100000)
```
]
.pull-right[

```r
fisheries
```

```
## # A tibble: 68 x 6
##    country                           capture aquaculture   total continent aquaculture_perc
##    <chr>                               <dbl>       <dbl>   <dbl> <chr>                <dbl>
##  1 Algeria                            126259         368  126627 Africa             0.00291
##  2 Argentina                          931472        2430  933902 Americas           0.00260
##  3 Australia                          245935       47087  293022 Oceania            0.161  
##  4 Bangladesh                        1333866      882091 2215957 Asia               0.398  
##  5 Brazil                             750283      257783 1008066 Americas           0.256  
##  6 Cambodia                           384000       26000  410000 Asia               0.0634 
##  7 Canada                            1080982      154083 1235065 Americas           0.125  
##  8 Chile                             4330325      698214 5028539 Americas           0.139  
##  9 Colombia                           121000       60072  181072 Americas           0.332  
## 10 Congo, Democratic Republic of the  220000        2965  222965 Africa             0.0133 
## # … with 58 more rows
```
…
class: center, middle

# Data joins

---

.pull-left[

```r
fisheries %>% select(country)
```

```
## # A tibble: 68 x 1
##    country                          
##    <chr>                            
##  1 Algeria                          
##  2 Argentina                        
##  3 Australia                        
##  4 Bangladesh                       
##  5 Brazil                           
##  6 Cambodia                         
##  7 Canada                           
##  8 Chile                            
##  9 Colombia                         
## 10 Congo, Democratic Republic of the
## # … with 58 more rows
```
]
.pull-right[

```r
continents
```

```
## # A tibble: 245 x 2
##    country           continent
##    <chr>             <chr>    
##  1 Afghanistan       Asia     
##  2 Åland Islands     Europe   
##  3 Albania           Europe   
##  4 Algeria           Africa   
##  5 American Samoa    Oceania  
##  6 Andorra           Europe   
##  7 Angola            Africa   
##  8 Anguilla          Americas 
##  9 Antigua & Barbuda Americas 
## 10 Argentina         Americas 
## # … with 235 more rows
```
…
---

.question[
We want to keep all rows and columns from `fisheries` and add a column for 
corresponding continents. Which join function should we use?
]

.pull-left[

```r
fisheries %>% select(country)
```

```
## # A tibble: 68 x 1
##    country                          
##    <chr>                            
##  1 Algeria                          
##  2 Argentina                        
##  3 Australia                        
##  4 Bangladesh                       
##  5 Brazil                           
##  6 Cambodia                         
##  7 Canada                           
##  8 Chile                            
##  9 Colombia                         
## 10 Congo, Democratic Republic of the
## # … with 58 more rows
```
]
.pull-right[

```r
continents
```

```
## # A tibble: 245 x 2
##    country           continent
##    <chr>             <chr>    
##  1 Afghanistan       Asia     
##  2 Åland Islands     Europe   
##  3 Albania           Europe   
##  4 Algeria           Africa   
##  5 American Samoa    Oceania  
##  6 Andorra           Europe   
##  7 Angola            Africa   
##  8 Anguilla          Americas 
##  9 Antigua & Barbuda Americas 
## 10 Argentina         Americas 
## # … with 235 more rows
```
…
## Pivot staff data

.midi[

```r
staff_long <- staff %>%
  pivot_longer(cols = -faculty_type, names_to = "year", 
               values_to = "percentage") %>%
  mutate(percentage = as.numeric(percentage))

staff_long
```

```
## # A tibble: 55 x 3
##    faculty_type              year  percentage
##    <chr>                     <chr>      <dbl>
##  1 Full-Time Tenured Faculty 1975        29  
##  2 Full-Time Tenured Faculty 1989        27.6
##  3 Full-Time Tenured Faculty 1993        25  
##  4 Full-Time Tenured Faculty 1995        24.8
##  5 Full-Time Tenured Faculty 1999        21.8
##  6 Full-Time Tenured Faculty 2001        20.3
##  7 Full-Time Tenured Faculty 2003        19.3
##  8 Full-Time Tenured Faculty 2005        17.8
##  9 Full-Time Tenured Faculty 2007        17.2
## 10 Full-Time Tenured Faculty 2009        16.8
## # … with 45 more rows
```
…
