Tidyverse ile verilerinize çeki düzen verin
…
---

## Verilere göz atalım

.midi[

```r
balikcilik
```

```
## # A tibble: 216 x 4
##    ulke                 hasat uretim toplam
##    <chr>                <dbl>  <dbl>  <dbl>
##  1 Afghanistan           1000   1200   2200
##  2 Albania               7886    950   8836
##  3 Algeria              95000   1361  96361
##  4 American Samoa        3047     20   3067
##  5 Andorra                  0      0      0
##  6 Angola              486490    655 487145
##  7 Antigua and Barbuda   3000     10   3010
##  8 Argentina           755226   3673 758899
##  9 Armenia               3758  16381  20139
## 10 Aruba                  142      0    142
## # … with 206 more rows
```
…
## Veri hazırlama

Toplam hasadı 100.000 tondan az olan ülkeleri filtreleyerek çıkaralım:

.midi[

```r
balikcilik <- balikcilik %>%
  filter(toplam > 100000)

balikcilik
```

```
## # A tibble: 82 x 4
##    ulke         hasat  uretim  toplam
##    <chr>        <dbl>   <dbl>   <dbl>
##  1 Angola      486490     655  487145
##  2 Argentina   755226    3673  758899
##  3 Australia   174629   96847  271476
##  4 Bangladesh 1674770 2203554 3878324
##  5 Brazil      705000  581230 1286230
##  6 Cambodia    629950  172500  802450
##  7 Cameroon    233190    2315  235505
##  8 Canada      874727  200765 1075492
##  9 Chad        110000      94  110094
## 10 Chile      1829238 1050117 2879355
## # … with 72 more rows
```
…
```
## Parsed with column specification:
## cols(
##   ulke = col_character(),
##   kita = col_character()
## )
```

```r
kitalar
```

```
## # A tibble: 245 x 2
##    ulke              kita    
##    <chr>             <chr>   
##  1 Afghanistan       Asia    
##  2 Åland Islands     Europe  
##  3 Albania           Europe  
##  4 Algeria           Africa  
##  5 American Samoa    Oceania 
##  6 Andorra           Europe  
##  7 Angola            Africa  
##  8 Anguilla          Americas
##  9 Antigua & Barbuda Americas
## 10 Argentina         Americas
## # … with 235 more rows
```
…
class: middle

# Veri birleştirme

---

.pull-left[

```r
balikcilik %>% select(ulke)
```

```
## # A tibble: 82 x 1
##    ulke      
##    <chr>     
##  1 Angola    
##  2 Argentina 
##  3 Australia 
##  4 Bangladesh
##  5 Brazil    
##  6 Cambodia  
##  7 Cameroon  
##  8 Canada    
##  9 Chad      
## 10 Chile     
## # … with 72 more rows
```
]
.pull-right[

```r
kitalar
```

```
## # A tibble: 245 x 2
##    ulke              kita    
##    <chr>             <chr>   
##  1 Afghanistan       Asia    
##  2 Åland Islands     Europe  
##  3 Albania           Europe  
##  4 Algeria           Africa  
##  5 American Samoa    Oceania 
##  6 Andorra           Europe  
##  7 Angola            Africa  
##  8 Anguilla          Americas
##  9 Antigua & Barbuda Americas
## 10 Argentina         Americas
## # … with 235 more rows
```
…
---

.question[
`balikcilik` tablosundaki tum satır ve sütunları tutmak ve bu tablodaki ülkelerin hangi kıtada olduğunu gosteren bir sütun daha eklemek istiyoruz. Hangi `*_join()` foksiyonunu kullanmalıyız?
]

.pull-left[

```r
balikcilik %>% select(ulke)
```

```
## # A tibble: 82 x 1
##    ulke      
##    <chr>     
##  1 Angola    
##  2 Argentina 
##  3 Australia 
##  4 Bangladesh
##  5 Brazil    
##  6 Cambodia  
##  7 Cameroon  
##  8 Canada    
##  9 Chad      
## 10 Chile     
## # … with 72 more rows
```
]
.pull-right[

```r
kitalar
```

```
## # A tibble: 245 x 2
##    ulke              kita    
##    <chr>             <chr>   
##  1 Afghanistan       Asia    
##  2 Åland Islands     Europe  
##  3 Albania           Europe  
##  4 Algeria           Africa  
##  5 American Samoa    Oceania 
##  6 Andorra           Europe  
##  7 Angola            Africa  
##  8 Anguilla          Americas
##  9 Antigua & Barbuda Americas
## 10 Argentina         Americas
## # … with 235 more rows
```
…
---

## Veri çerçeveleri: `tibble`

```r
map_data("world") %>% as_tibble()
```

```
## # A tibble: 99,338 x 6
##     long   lat group order region subregion
##    <dbl> <dbl> <dbl> <int> <chr>  <chr>    
##  1 -69.9  12.5     1     1 Aruba  <NA>     
##  2 -69.9  12.4     1     2 Aruba  <NA>     
##  3 -69.9  12.4     1     3 Aruba  <NA>     
##  4 -70.0  12.5     1     4 Aruba  <NA>     
##  5 -70.1  12.5     1     5 Aruba  <NA>     
##  6 -70.1  12.6     1     6 Aruba  <NA>     
##  7 -70.0  12.6     1     7 Aruba  <NA>     
##  8 -70.0  12.6     1     8 Aruba  <NA>     
##  9 -69.9  12.5     1     9 Aruba  <NA>     
## 10 -69.9  12.5     1    10 Aruba  <NA>     
## # … with 99,328 more rows
```
…
<img src="tidy-up_files/figure-html/unnamed-chunk-34-1.png" width="2100" />
]

---

## Balıkçılık ve dunya haritası veri çerçevelerini birleştirelim

.pull-left[

```r
balikcilik %>% select(ulke)
```

```
## # A tibble: 82 x 1
##    ulke      
##    <chr>     
##  1 Angola    
##  2 Argentina 
##  3 Australia 
##  4 Bangladesh
##  5 Brazil    
##  6 Cambodia  
##  7 Cameroon  
##  8 Canada    
##  9 Chad      
## 10 Chile     
## # … with 72 more rows
```
]
.pull-right[

```r
dunya_haritasi %>% select(region)
```

```
## # A tibble: 99,338 x 1
##    region
##    <chr> 
##  1 Aruba 
##  2 Aruba 
##  3 Aruba 
##  4 Aruba 
##  5 Aruba 
##  6 Aruba 
##  7 Aruba 
##  8 Aruba 
##  9 Aruba 
## 10 Aruba 
## # … with 99,328 more rows
```
…
.midi[

```r
ogretim_uyeleri_uzun <- ogretim_uyeleri %>%
  pivot_longer(cols = -kategori, 
               names_to = "yil", 
               values_to = "yuzde") %>%
  mutate(yuzde = as.numeric(yuzde))

ogretim_uyeleri_uzun
```

```
## # A tibble: 55 x 3
##    kategori          yil   yuzde
##    <chr>             <chr> <dbl>
##  1 Doçent / Profesör 1975   29  
##  2 Doçent / Profesör 1989   27.6
##  3 Doçent / Profesör 1993   25  
##  4 Doçent / Profesör 1995   24.8
##  5 Doçent / Profesör 1999   21.8
##  6 Doçent / Profesör 2001   20.3
##  7 Doçent / Profesör 2003   19.3
##  8 Doçent / Profesör 2005   17.8
##  9 Doçent / Profesör 2007   17.2
## 10 Doçent / Profesör 2009   16.8
## # … with 45 more rows
```
…
